{
  "name": "B2",
  "activities": [
    {
      "name": "Enter_Home",
      "color": "#FFFF0000",
      "is_noise": false,
      "is_ignored": false
    },
    {
      "name": "Other_Activity",
      "color": "#FF0000FF",
      "is_noise": false,
      "is_ignored": false
    },
    {
      "name": "Personal_Hygiene",
      "color": "#FF008000",
      "is_noise": false,
      "is_ignored": false
    },
    {
      "name": "Meal_Preparation",
      "color": "#FF8A2BE2",
      "is_noise": false,
      "is_ignored": false
    },
    {
      "name": "Take_Medicine",
      "color": "#FF00FFFF",
      "is_noise": false,
      "is_ignored": false
    },
    {
      "name": "Eating",
      "color": "#FFFF00FF",
      "is_noise": false,
      "is_ignored": false
    },
    {
      "name": "Leave_Home",
      "color": "#FFFFA500",
      "is_noise": false,
      "is_ignored": false
    },
    {
      "name": "Sleeping_Not_in_Bed",
      "color": "#FF00BFFF",
      "is_noise": false,
      "is_ignored": false
    },
    {
      "name": "Bed_Toilet_Transition",
      "color": "#FF808000",
      "is_noise": false,
      "is_ignored": false
    },
    {
      "name": "Sleeping_in_Bed",
      "color": "#FFC71585",
      "is_noise": false,
      "is_ignored": false
    },
    {
      "name": "Bathing",
      "color": "#FFFFC0CB",
      "is_noise": false,
      "is_ignored": false
    },
    {
      "name": "Housekeeping",
      "color": "#FF708090",
      "is_noise": false,
      "is_ignored": false
    }
  ],
  "residents": [],
  "site": "B2",
  "vhost": null,
  "exchange": null,
  "topic": null
}