{
  "name": "kyoto_090205_3d",
  "activities": [
    {
      "name": "Bed_To_Toilet",
      "color": "#FFFF7F50",
      "is_noise": false,
      "is_ignored": false
    },
    {
      "name": "Clean",
      "color": "#FF0000FF",
      "is_noise": false,
      "is_ignored": false
    },
    {
      "name": "Dress",
      "color": "#FFDEB887",
      "is_noise": false,
      "is_ignored": false
    },
    {
      "name": "Eat",
      "color": "#FFA9A9A9",
      "is_noise": false,
      "is_ignored": false
    },
    {
      "name": "Enter_Home",
      "color": "#FF008B8B",
      "is_noise": false,
      "is_ignored": false
    },
    {
      "name": "Leave_Home",
      "color": "#FF7FFF00",
      "is_noise": false,
      "is_ignored": false
    },
    {
      "name": "Meal_Preparation",
      "color": "#FF8A2BE2",
      "is_noise": false,
      "is_ignored": false
    },
    {
      "name": "Other_Activity",
      "color": "#FFC0C0C0",
      "is_noise": false,
      "is_ignored": false
    },
    {
      "name": "Personal_Hygiene",
      "color": "#FFAFEEEE",
      "is_noise": false,
      "is_ignored": false
    },
    {
      "name": "Sleep",
      "color": "#FFB22222",
      "is_noise": false,
      "is_ignored": false
    },
    {
      "name": "Study",
      "color": "#FFFF1493",
      "is_noise": false,
      "is_ignored": false
    },
    {
      "name": "Wash_Bathtub",
      "color": "#FF00FFFF",
      "is_noise": false,
      "is_ignored": false
    },
    {
      "name": "Watch_TV",
      "color": "#FFFF4500",
      "is_noise": false,
      "is_ignored": false
    },
    {
      "name": "Work",
      "color": "#FF228B22",
      "is_noise": false,
      "is_ignored": false
    }
  ],
  "residents": [
    {
      "name": "R1",
      "color": "#FF0000FF"
    },
    {
      "name": "R1;R2",
      "color": "#FFDAA520"
    },
    {
      "name": "R1;R3",
      "color": "#FFFFDAB9"
    },
    {
      "name": "R2",
      "color": "#FFDC143C"
    },
    {
      "name": "R2;R3",
      "color": "#FFADD8E6"
    },
    {
      "name": "R3",
      "color": "#FF228B22"
    }
  ],
  "site": "kyoto",
  "vhost": null,
  "exchange": null,
  "topic": null
}